measure,location,sex,age,cause,metric,year,val,upper,lower,pop
5,57,1,22,572,2,2019,0.000928506,0.001269816,0.000637243,1433783686
5,68,1,22,572,2,2019,0.002489024,0.003410902,0.001754384,25666161
5,90,1,22,572,2,2019,0.002562866,0.003352523,0.001874342,23773876
5,123,1,22,572,2,2019,0.00145365,0.001941852,0.001014729,16486542
5,168,1,22,572,2,2019,0.000981596,0.001322121,0.000693252,270625568
5,79,1,22,572,2,2019,0.002057009,0.002738934,0.001467803,7169455
5,36,1,22,572,2,2019,0.001293663,0.001738389,0.00087146,31949777
5,156,1,22,572,2,2019,0.003514905,0.005185187,0.002328655,530953
5,47,1,22,572,2,2019,0.001104164,0.001518973,0.000755673,54045420
5,211,1,22,572,2,2019,0.000660611,0.000891389,0.000449736,108116615
5,14,1,22,572,2,2019,0.001486509,0.002067895,0.000982785,21323733
5,101,1,22,572,2,2019,0.002058913,0.002798355,0.001472243,69625582
5,522,1,22,572,2,2019,0.001173341,0.001596108,0.000830535,1293119
5,25,1,22,572,2,2019,0.000710849,0.000972057,0.000475995,96462106
5,69,1,22,572,2,2019,0.00352827,0.004835465,0.002472775,889953
5,113,1,22,572,2,2019,0.001253697,0.001693081,0.000856254,117606
5,369,1,22,572,2,2019,0.001044146,0.001411696,0.00071136,58791
5,135,1,22,572,2,2019,0.001662646,0.002242182,0.001163353,548914
5,145,1,22,572,2,2019,0.003175241,0.004411831,0.002180644,8776109
5,435,1,22,572,2,2019,0.001040429,0.001387193,0.000732261,197097
5,58,1,22,572,2,2019,0.001164296,0.001600774,0.000802566,669823
5,80,1,22,572,2,2019,0.002156572,0.002883743,0.001544201,104494
5,26,1,22,572,2,2019,0.000699159,0.000977464,0.000467191,299882
5,178,1,22,572,2,2019,0.000772595,0.001051749,0.00051306,2957731
5,48,1,22,572,2,2019,0.001034954,0.00142617,0.000704891,10047718
5,202,1,22,572,2,2019,0.000908873,0.001232635,0.000631602,3996765
5,179,1,22,572,2,2019,0.00071162,0.000955515,0.000501681,18551427
5,212,1,22,572,2,2019,0.000875599,0.001187716,0.000609271,6415850
5,15,1,22,572,2,2019,0.000826125,0.001130763,0.000571859,3225167
5,157,1,22,572,2,2019,0.001000703,0.001340213,0.000700204,9321018
5,6,1,22,572,2,2019,0.000969417,0.001315078,0.000661079,5942089
5,92,1,22,572,2,2019,0.002013367,0.002664892,0.001441514,32981716
5,169,1,22,572,2,2019,0.000553831,0.000765306,0.000371681,2880917
5,49,1,22,572,2,2019,0.000989158,0.001365504,0.000669448,3301000
5,376,1,22,572,2,2019,0.001045355,0.001430868,0.000746176,7000119
5,191,1,22,572,2,2019,0.000919091,0.0012665,0.000637848,4130304
5,71,1,22,572,2,2019,0.006887799,0.009044045,0.004920931,10689209
5,38,1,22,572,2,2019,0.001102121,0.001494817,0.0007711,9684679
5,105,1,22,572,2,2019,0.001716241,0.002315987,0.001186369,2083459
5,125,1,22,572,2,2019,0.001550864,0.002065653,0.00108463,627987
5,180,1,22,572,2,2019,0.000927595,0.001235977,0.000658145,37887768
5,82,1,22,572,2,2019,0.001832825,0.002446245,0.001312322,19364557
5,114,1,22,572,2,2019,0.000826766,0.001120319,0.000557113,8772235
5,298,1,22,572,2,2019,0.001036598,0.001431818,0.000723834,5457013
5,16,1,22,572,2,2019,0.00098497,0.001323389,0.000685622,2078654
5,215,1,22,572,2,2019,0.000939319,0.001276318,0.00067314,9452411
5,147,1,22,572,2,2019,0.001772166,0.002387076,0.001258456,1325648
5,7,1,22,572,2,2019,0.000596134,0.000826129,0.000400132,1906743
5,115,1,22,572,2,2019,0.001322174,0.00183843,0.000904575,2759627
5,203,1,22,572,2,2019,0.001261164,0.001699116,0.000862688,4043263
5,380,1,22,572,2,2019,0.000981735,0.00137406,0.000688949,145872256
5,28,1,22,572,2,2019,0.000579008,0.000799415,0.000392451,43993638
5,172,1,22,572,2,2019,0.001916853,0.002551198,0.001325529,433285
5,93,1,22,572,2,2019,0.002179556,0.002872047,0.001569548,126860301
5,127,1,22,572,2,2019,0.001307937,0.001776702,0.000889111,51225308
5,170,1,22,572,2,2019,0.001005801,0.001403608,0.000693508,5804337
5,320,1,22,572,2,2019,0.001043585,0.001410095,0.000738302,25203198
5,193,1,22,572,2,2019,0.001611932,0.002232863,0.001077303,4783063
5,61,1,22,572,2,2019,0.000774376,0.001089597,0.00051406,77142
5,39,1,22,572,2,2019,0.000775031,0.001059951,0.000519297,8955102
5,17,1,22,572,2,2019,0.000969147,0.001305629,0.000662002,11539328
5,117,1,22,572,2,2019,0.001282911,0.001731168,0.00089934,1198575
5,10,1,22,572,2,2019,0.000782027,0.001068717,0.000533677,5771876
5,106,1,22,572,2,2019,0.001874286,0.002544051,0.001306603,5532156
5,148,1,22,572,2,2019,0.001469689,0.001985366,0.001011331,65129728
5,216,1,22,572,2,2019,0.000813872,0.001121451,0.000553279,83517045
5,83,1,22,572,2,2019,0.002381302,0.00314411,0.001712869,10473455
5,51,1,22,572,2,2019,0.001169609,0.001562363,0.000813497,339031
5,94,1,22,572,2,2019,0.002254564,0.002956458,0.001624571,4882495
5,95,1,22,572,2,2019,0.002180023,0.002871751,0.001584274,8519377
5,161,1,22,572,2,2019,0.000933947,0.001274707,0.000639139,60550075
5,29,1,22,572,2,2019,0.000745802,0.001024853,0.000513371,615729
5,182,1,22,572,2,2019,0.000656196,0.000908481,0.000447301,440372
5,62,1,22,572,2,2019,0.00114463,0.00154496,0.000793605,17097130
5,74,1,22,572,2,2019,0.00247353,0.003269007,0.001789945,5378857
5,139,1,22,572,2,2019,0.001693075,0.002314218,0.001168673,10226187
5,37,1,22,572,2,2019,0.000802256,0.001114064,0.000546741,46736776
5,128,1,22,572,2,2019,0.001335032,0.001807039,0.000930622,10036379
5,102,1,22,572,2,2019,0.002210835,0.002963157,0.001570114,8591365
5,81,1,22,572,2,2019,0.002129512,0.002816084,0.001585232,67530172
5,59,1,22,572,2,2019,0.001067081,0.001466401,0.000734903,44780677
5,52,1,22,572,2,2019,0.001015869,0.001420457,0.000700812,18952038
5,149,1,22,572,2,2019,0.001342921,0.001826532,0.000964887,3461734
5,43,1,22,572,2,2019,0.000931452,0.001274992,0.000639689,37411047
5,349,1,22,572,2,2019,0.002633844,0.003569087,0.001809445,329064917
5,19,1,22,572,2,2019,0.000799202,0.001091709,0.000550959,97118
5,84,1,22,572,2,2019,0.002392686,0.003154924,0.001751065,389482
5,40,1,22,572,2,2019,0.001316933,0.001814015,0.000924041,287025
5,190,1,22,572,2,2019,0.000724083,0.0009892,0.000504728,390353
5,60,1,22,572,2,2019,0.001123993,0.001558993,0.000776413,11333483
5,385,1,22,572,2,2019,0.001640256,0.002171138,0.001166998,71808
5,204,1,22,572,2,2019,0.00066064,0.000911454,0.000461103,10738958
5,206,1,22,572,2,2019,0.000755433,0.001026601,0.000525585,112003
5,140,1,22,572,2,2019,0.002568301,0.003649891,0.001740011,782766
5,173,1,22,572,2,2019,0.001443594,0.001966003,0.001007957,11263077
5,75,1,22,572,2,2019,0.002122314,0.002835694,0.001497968,2948279
5,162,1,22,572,2,2019,0.001344856,0.001876612,0.000923533,182790
5,63,1,22,572,2,2019,0.000877412,0.001250205,0.000594034,110589
5,20,1,22,572,2,2019,0.000862462,0.00118412,0.000585631,581372
5,183,1,22,572,2,2019,0.001104668,0.001497587,0.000754051,1394973
5,374,1,22,572,2,2019,0.000869048,0.001190028,0.000603078,11513100
5,53,1,22,572,2,2019,0.000899006,0.001221502,0.000604616,17373662
5,11,1,22,572,2,2019,0.001011052,0.001353545,0.000706475,32510453
5,54,1,22,572,2,2019,0.001204806,0.001648876,0.000817218,50339443
5,98,1,22,572,2,2019,0.002361122,0.003143532,0.001658198,5047561
5,129,1,22,572,2,2019,0.001128893,0.001521527,0.000791975,6453553
5,351,1,22,572,2,2019,0.001413226,0.001945921,0.000992464,17581472
5,34,1,22,572,2,2019,0.001220991,0.001676221,0.000830413,9746117
5,213,1,22,572,2,2019,0.000547201,0.000762515,0.000380472,127575529
5,18,1,22,572,2,2019,0.001021957,0.001402955,0.000689047,6545502
5,413,1,22,572,2,2019,0.000768815,0.001043138,0.000535115,4246439
5,146,1,22,572,2,2019,0.001801272,0.002448615,0.001248475,28515829
5,107,1,22,572,2,2019,0.001327334,0.001798985,0.000929011,211049527
5,87,1,22,572,2,2019,0.002950284,0.003920333,0.002098087,7044636
5,151,1,22,572,2,2019,0.004908412,0.006840468,0.00327408,43053054
5,109,1,22,572,2,2019,0.001064126,0.001445618,0.000736117,1641172
5,118,1,22,572,2,2019,0.001385747,0.001893532,0.000952949,100388073
5,76,1,22,572,2,2019,0.00197878,0.002617959,0.001430292,82913906
5,112,1,22,572,2,2019,0.001470679,0.001997369,0.001048096,39309783
5,163,1,22,572,2,2019,0.001129772,0.001509877,0.000795452,10101694
5,30,1,22,572,2,2019,0.000641811,0.000884827,0.000441158,4207083
5,184,1,22,572,2,2019,0.000617076,0.000849826,0.000412993,6855713
5,143,1,22,572,2,2019,0.001813172,0.002378956,0.001281314,6777452
5,88,1,22,572,2,2019,0.002102613,0.002806698,0.001502411,36471769
5,152,1,22,572,2,2019,0.003121425,0.004217529,0.002156549,4981420
5,186,1,22,572,2,2019,0.001346813,0.00184364,0.000925115,4974986
5,132,1,22,572,2,2019,0.001655291,0.002194169,0.001139408,2832067
5,12,1,22,572,2,2019,0.000932764,0.001293556,0.000641588,34268528
5,164,1,22,572,2,2019,0.000829694,0.001157555,0.000555936,17070135
5,217,1,22,572,2,2019,0.000696717,0.00094263,0.000474775,11694719
5,194,1,22,572,2,2019,0.001009499,0.00136531,0.000680138,83429615
5,110,1,22,572,2,2019,0.001268611,0.001705334,0.00087829,9770529
5,91,1,22,572,2,2019,0.002130625,0.002832569,0.001519471,29161922
5,207,1,22,572,2,2019,0.00097493,0.001330966,0.000671154,38041754
5,119,1,22,572,2,2019,0.00171742,0.002330768,0.001162918,163046161
5,214,1,22,572,2,2019,0.00096806,0.001292862,0.000695802,763092
5,198,1,22,572,2,2019,0.000821533,0.001119852,0.000563267,1366417754
5,175,1,22,572,2,2019,0.000541047,0.000736101,0.000367973,28608710
5,126,1,22,572,2,2019,0.001542781,0.002096009,0.001079406,216565318
5,197,1,22,572,2,2019,0.001292976,0.001727433,0.000919977,31825295
5,22,1,22,572,2,2019,0.00088667,0.001208716,0.000610744,4745185
5,177,1,22,572,2,2019,0.000938455,0.001285986,0.00063288,86790567
5,210,1,22,572,2,2019,0.000602796,0.00083889,0.00040134,5380508
5,24,1,22,572,2,2019,0.000738995,0.001003213,0.000488416,1355986
5,85,1,22,572,2,2019,0.002176565,0.002901341,0.001575063,2172579
5,416,1,22,572,2,2019,0.000738651,0.001025474,0.000497718,11530580
5,44,1,22,572,2,2019,0.000844101,0.001143543,0.000582932,850886
5,122,1,22,572,2,2019,0.001408131,0.001871647,0.000986458,973560
5,201,1,22,572,2,2019,0.000660007,0.000896807,0.000444008,3497117
5,27,1,22,572,2,2019,0.000801763,0.00109453,0.000539457,112078730
5,367,1,22,572,2,2019,0.003125244,0.004094062,0.002255305,52573973
5,187,1,22,572,2,2019,0.00037339,0.000523416,0.000250623,26969307
5,78,1,22,572,2,2019,0.002162876,0.00281719,0.001543144,18628747
5,171,1,22,572,2,2019,0.000596264,0.00080861,0.000399477,1269668
5,41,1,22,572,2,2019,0.001005734,0.001356824,0.00069529,30366036
5,108,1,22,572,2,2019,0.001361185,0.001849885,0.000951609,12626950
5,99,1,22,572,2,2019,0.002133701,0.002875319,0.001496739,97739
5,72,1,22,572,2,2019,0.003068635,0.004055998,0.002182126,15442905
5,136,1,22,572,2,2019,0.001571031,0.002154673,0.001112562,58005463
5,8,1,22,572,2,2019,0.001355116,0.001836796,0.000927405,44269594
5,86,1,22,572,2,2019,0.00180697,0.00241585,0.001294848,17861030
5,50,1,22,572,2,2019,0.001018088,0.001404266,0.000708182,2303697
5,153,1,22,572,2,2019,0.001108812,0.001522782,0.000776231,2125268
5,144,1,22,572,2,2019,0.001748359,0.00237215,0.001191102,2494530
5,208,1,22,572,2,2019,0.0006555,0.000895392,0.000441349,58558270
5,35,1,22,572,2,2019,0.000898132,0.001229146,0.000615338,1148130
5,305,1,22,572,2,2019,0.001760712,0.002407703,0.001231249,14645468
5,133,1,22,572,2,2019,0.001280354,0.001751128,0.000876615,11801151
5,89,1,22,572,2,2019,0.002041396,0.002703619,0.001471292,20321378
5,393,1,22,572,2,2019,0.001691309,0.002300512,0.001189735,25876380
5,195,1,22,572,2,2019,0.001347097,0.001815462,0.000936232,549935
5,150,1,22,572,2,2019,0.003280369,0.004535433,0.002141267,15946876
5,111,1,22,572,2,2019,0.001550443,0.002089863,0.00106549,25716544
5,160,1,22,572,2,2019,0.000937886,0.001266317,0.000651214,2347706
5,422,1,22,572,2,2019,0.001645261,0.002190609,0.001147341,30417856
5,66,1,22,572,2,2019,0.003976336,0.00528427,0.00285267,12771246
5,154,1,22,572,2,2019,0.001531914,0.002065819,0.001062141,1920922
5,116,1,22,572,2,2019,0.0013954,0.001888845,0.00097411,4937374
5,45,1,22,572,2,2019,0.000913121,0.001268117,0.00061487,19658031
5,181,1,22,572,2,2019,0.000707682,0.000985722,0.000487926,4525696
5,396,1,22,572,2,2019,0.002259403,0.003022061,0.001654789,23310715
5,196,1,22,572,2,2019,0.001482681,0.002006344,0.001036349,200963599
5,67,1,22,572,2,2019,0.002105846,0.002796024,0.001510528,215056
5,23,1,22,572,2,2019,0.000603213,0.000829701,0.000403724,16296364
5,130,1,22,572,2,2019,0.001518528,0.002005676,0.001075551,7813215
5,218,1,22,572,2,2019,0.000699664,0.000954443,0.000478696,8082366
5,131,1,22,572,2,2019,0.0011972,0.001630816,0.000832339,55312
5,141,1,22,572,2,2019,0.001595991,0.002167664,0.00111165,62506
5,205,1,22,572,2,2019,0.000914548,0.001269299,0.00062024,17548
5,189,1,22,572,2,2019,0.000792534,0.001071548,0.000544579,56672
5,97,1,22,572,2,2019,0.002205368,0.002959213,0.001577374,167294
5,13,1,22,572,2,2019,0.001470904,0.001971588,0.001002948,38964
5,176,1,22,572,2,2019,0.000758094,0.001044067,0.000504002,10756
5,142,1,22,572,2,2019,0.002255851,0.003047783,0.001582225,1615
5,46,1,22,572,2,2019,0.00101579,0.001398429,0.00068947,57216
5,33,1,22,572,2,2019,0.000967006,0.001334338,0.000668583,18008
5,77,1,22,572,2,2019,0.002329026,0.003125286,0.001684503,2933408
5,185,1,22,572,2,2019,0.000809118,0.001098428,0.000551679,52823
5,55,1,22,572,2,2019,0.001070236,0.001483613,0.000722724,33860
5,155,1,22,572,2,2019,0.00180728,0.002430257,0.001283712,1340
5,200,1,22,572,2,2019,0.000744157,0.001014158,0.000504928,11646
5,165,1,22,572,2,2019,0.001015347,0.001364429,0.000699157,104578
5,121,1,22,572,2,2019,0.001162489,0.0015789,0.000804424,11062113
5,209,1,22,572,2,2019,0.000717386,0.000979957,0.000480711,42813238
